index	biomass	abund	g_value	mean_bm
5	243329.612	92	0.712360973	172.5870
6	27005.125	23	0.672785648	136.7391
7	1676517.901	156	0.173070464	268.3205
10	55624.348	27	0.643482413	160.7778
11	9033890.123	981	0.350090787	247.0836
13	12732958.448	22	-0.364076924	1329.6364
14	40146.335	27	0.405756606	145.8519
15	73794.986	27	0.230969163	176.1481
16	5969589.438	235	0.155335488	342.3191
17	109926.311	21	-0.676801099	229.7619
18	1753121.676	51	0.327740590	361.7059
19	218392.860	201	0.212318130	135.4129
20	823012.846	42	0.082339374	323.4048
21	539512.587	33	-0.449189256	375.9091
23	5070921.782	295	0.138631701	304.4915
24	6240233.723	188	0.774252548	316.3883
26	1257380.419	55	0.896309226	276.1636
27	22168.504	23	1.688681178	125.4783
28	1246790.604	103	-0.238469673	291.9320
31	121074.649	55	-0.102726285	170.1273
32	219401.670	86	0.498035562	168.5465
33	8749956.676	19	-1.085085231	1095.9474
34	2562457.639	264	-0.313601954	274.8182
36	76506.921	25	-0.253651965	191.0400
38	20851605.237	39	-0.926163367	1129.4615
39	62994.239	38	1.206392300	144.7895
44	478565.517	87	0.193508017	219.1034
45	1040967.528	24	-0.235841519	419.9583
46	213204.796	16	-0.423064840	306.6250
47	47447.667	22	0.200382155	168.0455
48	11405.006	13	0.767750300	123.3846
50	591391.186	63	-0.291331241	270.6667
51	1697150.596	325	-0.043250941	220.2154
52	397866.141	365	0.887638006	132.6027
53	45315.509	55	1.489664636	120.9636
54	119176.998	98	0.631501194	137.3878
56	74063.439	12	0.289023617	223.4167
58	35857.419	47	2.196977546	117.0426
59	1114966.874	87	0.119908392	288.3103
60	7331.763	13	0.859086279	107.2308
61	27556.316	16	1.279911209	152.8750
62	4960810.022	33	-0.885335721	732.7576
63	1068298.779	285	1.051002519	179.7649
64	283562.472	21	0.372255479	342.6190
66	24959.665	27	0.820796122	126.3333
67	21579.403	17	0.415617165	140.5882
68	283155.074	82	0.978160147	178.3415
69	21310.798	12	-0.199189931	157.2500
70	240946.974	55	0.518631450	198.6545
71	383401.934	177	0.735831372	158.9605
72	1462088.529	1717	1.083361125	122.4321
73	1533183.655	5	0.361298046	984.0000
75	2652973.184	6	-0.520922871	1124.6667
78	1405823.127	8	0.642858586	821.0000
80	69135.938	23	0.445818787	181.8261
81	588338.424	6	1.100451961	729.8333
82	131448.098	94	0.631785118	142.2553
83	23008.402	10	0.435654616	168.9000
84	185650.479	22	0.198166495	250.3182
85	2020739.436	99	0.037700845	320.5354
86	112834.290	67	0.771375664	150.9104
87	382431.959	9	0.917672449	404.8889
88	1693701.738	376	0.214495812	205.7926
89	2409665.838	244	0.518616700	246.1803
90	921242.239	38	-0.270449657	360.8947
91	155836.305	85	0.822472566	152.7882
92	2105129.187	644	0.222117731	191.0683
93	110774.904	13	-1.125484534	274.8462
94	441354.779	229	0.379250094	159.1354
95	6458.226	7	1.158981325	125.2857
96	855773.511	288	0.305618676	181.7361
97	2556951.401	41	-0.711361671	523.8537
98	24491.622	5	0.318001232	204.0000
99	1768267.175	683	0.566197994	170.6647
100	20961565.401	101	-0.355049658	732.1188
101	39777.489	27	0.611139908	146.0741
102	49269.047	13	0.295774755	204.2308
103	174285.509	49	0.790848372	180.7143
104	102463.076	10	0.068814352	258.5000
105	598120.910	98	-0.061701032	233.1939
106	58427.581	67	0.527023606	124.0597
108	35378.355	20	0.791029625	152.9000
109	57822.540	10	-0.094548929	233.1000
110	6925.571	5	-0.040970573	144.4000
111	112410.736	76	0.594279122	146.8421
112	84400.594	14	-0.023951448	234.2143
113	43801.290	25	0.290325617	153.5600
114	7991.363	13	0.630614924	110.8462
115	7325561.566	237	-0.422634661	407.8397
116	38947.332	33	0.938097866	136.3030
117	149187.498	51	0.562314725	177.9804
118	98407.755	12	0.614306073	230.2500
119	20327.026	27	1.461230399	117.7778
120	95306.789	5	0.574910585	312.6000
121	56378.923	14	0.489670363	197.0000
122	408641.019	10	0.814768870	345.3000
123	272359.163	64	-0.096765470	211.0938
124	739347.635	121	0.452498652	215.4959
125	3936573.900	92	-0.019267244	411.2609
127	234221.461	25	0.297482658	257.6800
128	155537.139	166	1.263662049	126.1747
130	32381.785	10	0.305927518	191.1000
131	67558.413	21	0.894099303	179.5238
132	6274.979	8	0.123030540	120.6250
133	178655.829	70	0.682743369	167.8571
135	9468.293	7	1.197305891	141.7143
136	11553.934	15	0.574847384	119.6667
137	12863.509	5	0.138773729	176.0000
138	98511.189	7	-0.135861844	300.1429
139	97523.672	33	0.644680076	175.8182
140	70684.070	10	-0.023466031	245.3000
142	110641.244	5	0.279062876	403.8000
143	67427.457	31	0.972271312	161.6774
144	192974.295	35	0.459449360	212.5429
145	127578.739	23	0.670413789	207.6957
146	4316012.238	183	0.343772544	319.8634
147	478115.359	788	0.862598772	110.0596
149	169777.940	5	0.829101096	327.8000
152	110946.595	9	0.509139846	261.5556
153	24201.637	21	0.357113681	135.0000
154	50456.791	45	1.688274284	130.5333
155	5556.933	9	-0.232998026	111.0000
156	1702345.827	61	-0.319981730	386.0984
157	3426652.660	43	-0.125647809	502.6279
158	80935.418	15	-0.379866987	226.8667
159	2977884.321	755	1.321665080	176.0026
160	95187.716	13	-0.439969585	251.0769
162	2376440.782	201	0.209798031	269.0846
163	185914.125	31	0.200192393	233.7419
164	14087999.058	344	0.488160377	364.0087
165	142567.600	110	0.760748191	139.4091
166	72253.299	50	1.594115013	138.2200
167	1791986.929	382	0.192383259	208.0733
168	1802167.391	8	-1.117240632	871.2500
171	315264.043	78	1.230963977	178.2564
172	17527909.143	725	-0.001097500	345.9214
174	297747.838	248	0.811464518	136.6613
176	460533.568	17	-0.021953201	359.0588
178	2291324.192	289	0.559457894	229.1799
179	19082.762	13	-0.001624952	147.0769
180	13634.397	16	2.020890810	120.1875
181	1404747.648	79	1.071792796	263.6076
182	293377.263	346	0.347231439	123.9595
183	20543.476	12	-0.317184484	155.9167
184	18672.255	27	1.482226721	114.4815
185	6350.216	8	0.228426078	120.1250
186	917079.793	29	-0.027930455	378.5517
187	1247087.178	63	0.241256985	317.3968
188	1464894.290	26	0.220467835	451.0385
189	619139.545	336	0.600336910	155.2887
190	254620.028	26	0.117773774	255.5385
191	2080222.786	31	-0.309860974	499.4516
192	910630.866	68	0.421462333	271.2059
193	3732140.440	324	-0.145058689	281.7222
194	1944089.759	98	1.127802530	256.6531
197	636591.984	28	-0.022642977	357.6429
198	1144808.269	44	-0.407649791	378.3409
199	4320908.430	379	0.313505514	261.7678
200	191798.047	7	-1.605101014	444.5714
201	14173.048	12	-0.347679959	138.5833
203	87804.792	6	0.155524134	299.5000
204	679812.777	40	0.176985029	307.1750
206	175438.607	14	-0.502137131	309.0000
208	154397.099	82	0.447966131	157.4512
209	11633991.837	1678	0.144778067	233.7861
211	436077.100	148	0.386134387	179.0135
212	23172.290	33	0.541589834	115.3939
213	90341.583	32	0.533578702	175.9062
214	258808.355	58	0.426808272	199.1552
215	31100.894	14	-0.048103184	171.5000
216	310610.297	163	0.227357222	160.3190
217	335310.548	24	0.212683194	288.8333
218	2107746.640	614	0.155799279	191.5879
219	4470541.209	168	-0.157711354	366.1726
221	128557.226	12	0.065002028	260.8333
222	233366.260	143	0.737753714	149.3147
223	74103.243	43	0.540178086	152.6047
224	2187137.180	150	-0.318337201	310.7600
225	453019.499	68	0.175847836	230.8088
227	54525.639	10	-0.111092213	225.4000
