Theta;m-rate;Mean Species Richness;BCI SAD chi square;BCI SBD chi square
20;0.063;99.339;270.797724195;341.16087
20;0.075;101.45;254.426779938;323.245157
20;0.089;103.72;236.369017953;300.984861
25;0.063;117.962;175.567559576;234.731328
25;0.075;121.596;158.197457174;212.514161
25;0.089;124.502;144.075977998;199.481748
30;0.063;136.589;114.362189909;163.5339
30;0.075;139.763;102.752274056;149.187759
30;0.089;143.691;90.6869186364;136.724797
35;0.063;153.519;75.2831148299;119.338124
35;0.075;157.721;66.3627052356;109.323392
35;0.089;162.423;57.1806114578;98.747018
40;0.063;169.799;51.895538783;91.942417
40;0.075;175.097;43.654292336;83.405317
40;0.089;180.099;37.2572696081;76.756549
20;0.9925;140.355;102.425506185;114.949262722
20;0.995;141.235;104.229812845;111.042748018
20;0.9975;140.875;103.814204582;112.503771596
20;0.999;141.28;103.279583381;114.781389129
25;0.9925;169.965;55.1371817441;64.1738943492
25;0.995;169.66;53.2933680062;63.4601447227
25;0.9975;169.975;54.8624119285;65.9281749682
25;0.999;170.215;54.5190195199;66.1139439532
30;0.9925;197.925;32.1073749446;43.0930992093
30;0.995;198.585;32.081663105;41.8648568534
30;0.9975;198.175;31.8239529636;42.3197832809
30;0.999;198.31;31.9140126919;43.8044037357
35;0.9925;225.355;23.2311285235;34.8726949125
35;0.995;225.285;22.4642241979;34.2949433183
35;0.9975;225.595;22.7496439904;33.9625784702
35;0.999;225.225;22.7826249712;34.3975471539
